{
    "editor": [
        {
            "icon": "",
            "key": "preGameScreen",
            "header": "PreGameScreen",
            "disabled": false,
            "fields": [
                {
                    "key": "titleText",
                    "header": "Title Text",
                    "type": "text"
                },
                {
                    "key": "titleTextSize",
                    "header": "Title text size",
                    "type": "range",
                    "options": {
                        "minValue": 20,
                        "maxValue": 40,
                        "stepSize": "1"
                    }
                },
                {
                    "key": "playButtonText",
                    "header": "Play Button Text",
                    "type": "text"
                },
                {
                    "key": "buttonTextColor",
                    "header": "Play Button Text Color",
                    "type": "color"
                },
                {
                    "key": "backgroundImage",
                    "header": "Background Image",
                    "type": "image"
                },
                {
                    "key": "backgroundMode",
                    "header": "Background Image Mode",
                    "type": "dropdown",
                    "options": [
                        "cover",
                        "fit"
                    ]
                },
                {
                    "key": "titleImage",
                    "header": "Header Image",
                    "type": "image"
                },
                {
                    "key": "titleImageSize",
                    "header": "Header image size",
                    "type": "range",
                    "options": {
                        "minValue": 150,
                        "maxValue": 400,
                        "stepSize": "1"
                    }
                },
                {
                    "key": "cardColor",
                    "header": "Card Color",
                    "type": "color"
                },
                {
                    "key": "buttonColor",
                    "header": "Play Button Color",
                    "type": "color"
                },
                {
                    "key": "fontFamily",
                    "header": "Google Font Name",
                    "type": "text"
                },
                {
                    "key": "showLeaderboardButton",
                    "header": "Show leaderboard button",
                    "type": "boolean"
                },
                {
                    "key": "leaderboardButtonText",
                    "header": "Leaderboard button text",
                    "type": "text"
                },
                {
                    "key": "showSoundButton",
                    "header": "Show sound button",
                    "type": "boolean"
                },
                {
                    "key": "soundEnabledIcon",
                    "type": "image",
                    "header": "Sound enabled icon"
                },
                {
                    "key": "soundDisabledIcon",
                    "type": "image",
                    "header": "Sound disabled icon"
                }
            ]
        },
        {
            "icon": "",
            "key": "settings",
            "header": "Game Settings",
            "disabled": false,
            "fields": [
                {
                    "key": "instructions1",
                    "type": "text",
                    "header": "Instructions Text 1"
                },
                {
                    "key": "instructions2",
                    "type": "text",
                    "header": "Instructions Text 2"
                },
                {
                    "key": "instructions3",
                    "type": "text",
                    "header": "Instructions Text 3"
                },
                {
                    "key": "textColor",
                    "header": "In Game Text Color",
                    "type": "color"
                },
                {
                    "key": "block",
                    "header": "Block Image",
                    "type": "image"
                },
                {
                    "key": "showPlayer",
                    "header": "Show player over platform",
                    "type": "boolean"
                },
                {
                    "key": "idle",
                    "header": "Player idle sprite",
                    "type": "image"
                },
                {
                    "key": "jump",
                    "header": "Player jump sprite",
                    "type": "image"
                },
                {
                    "key": "blockSize",
                    "type": "range",
                    "header": "Block size",
                    "options": {
                        "minValue": 30,
                        "maxValue": 60,
                        "stepSize": "0.1"
                    }
                },
                {
                    "key": "blockCount",
                    "header": "Block count",
                    "type": "range",
                    "options": {
                        "minValue": 3,
                        "maxValue": 6,
                        "stepSize": 1
                    }
                },
                {
                    "key": "depth",
                    "header": "Show depth effect",
                    "type": "boolean"
                },
                {
                    "key": "fixedLength",
                    "header": "Fixed game length",
                    "type": "boolean"
                },
                {
                    "key": "gameLength",
                    "header": "Game length",
                    "type": "range",
                    "options": {
                        "minValue": 5,
                        "maxValue": 60,
                        "stepSize": "1"
                    }
                },
                {
                    "key": "scoreToWin",
                    "header": "Score required to show custom text",
                    "type": "range",
                    "options": {
                        "minValue": 0,
                        "maxValue": 500,
                        "stepSize": 1
                    }
                },
                {
                    "key": "tap",
                    "header": "Tap sound effect",
                    "type": "sound"
                },
                {
                    "key": "theme",
                    "header": "Background Music",
                    "type": "sound"
                },
                {
                    "key": "lose",
                    "header": "Lose sound effect",
                    "type": "sound"
                },
                {
                    "key": "volume",
                    "header": "Background music volume",
                    "type": "range",
                    "options": {
                        "minValue": 0,
                        "maxValue": 1,
                        "stepSize": "0.1"
                    }
                },
                {
                    "key": "showComboText",
                    "header": "Show text when performing a combo",
                    "type": "boolean"
                },
                {
                    "key": "comboTextColor",
                    "header": "Combo text color",
                    "type": "color"
                },
                {
                    "key": "comboTexts",
                    "header": "Combo texts",
                    "type": "array",
                    "fields": [
                        {
                            "key": "i1",
                            "header": "1",
                            "type": "text"
                        },
                        {
                            "key": "i2",
                            "header": "2",
                            "type": "text"
                        },
                        {
                            "key": "i3",
                            "header": "3",
                            "type": "text"
                        },
                        {
                            "key": "i4",
                            "header": "4",
                            "type": "text"
                        }
                    ]
                }
            ]
        },
        {
            "icon": "",
            "key": "postGameScreen",
            "header": "Post Game Screen",
            "disabled": false,
            "fields": [
                {
                    "key": "scoreText",
                    "header": "Text before score",
                    "type": "text"
                },
                {
                    "key": "textColor",
                    "header": "Text Color",
                    "type": "color"
                },
                {
                    "key": "buttonTextColor",
                    "header": "Button text color",
                    "type": "color"
                },
                {
                    "key": "cardColor",
                    "header": "Card Background Color",
                    "type": "color"
                },
                {
                    "key": "playButtonText",
                    "header": "Play again button text",
                    "type": "text"
                },
                {
                    "key": "buttonColor",
                    "header": "Buttons color",
                    "type": "color"
                },
                {
                    "key": "buttonTextColor",
                    "header": "Buttons text color",
                    "type": "color"
                },
                {
                    "key": "showText",
                    "header": "Show custom text",
                    "type": "boolean"
                },
                {
                    "key": "customText",
                    "header": "Custom text",
                    "type": "text"
                },
                {
                    "key": "submitName",
                    "header": "Show name field",
                    "type": "boolean"
                },
                {
                    "key": "submitEmail",
                    "header": "Show email field",
                    "type": "boolean"
                },
                {
                    "key": "submitScoreText",
                    "header": "Submit score button text",
                    "type": "text"
                },
                {
                    "key": "showLeadeboardButtonPostGameScreen",
                    "header": "Show Leadeboard Button",
                    "type": "boolean"
                },
                {
                    "key": "leaderboardButtonText",
                    "type": "text",
                    "header": "Leadeboard button text"
                },
                {
                    "key": "showCTA",
                    "header": "Show CTA Button",
                    "type": "boolean"
                },
                {
                    "key": "ctaText",
                    "header": "CTA text",
                    "type": "text"
                },
                {
                    "key": "ctaButtonText",
                    "header": "CTA button text",
                    "type": "text"
                },
                {
                    "key": "ctaUrl",
                    "header": "CTA Link",
                    "type": "text"
                }
            ]
        }
    ],
    "config": {
        "preGameScreen": {
            "titleText": "Stack clones",
            "titleTextSize": 30,
            "playButtonText": "Play",
            "cardColor": "#ffffff",
            "buttonColor": "#35259a",
            "buttonTextColor": "#ffffff",
            "backgroundImage": "https://frontend.apps.playcent.com/8158faf196634992a79340ba31a1f8f4/assets/37-affinity-game-background-600.jpg",
            "backgroundMode": "cover",
            "titleImage": "https://frontend.apps.playcent.com/8158faf196634992a79340ba31a1f8f4/assets/09f692ad5031bc462cef4f63c95162e3-removebg-preview (1) (1).png",
            "titleImageSize": 200,
            "fontFamily": "Balsamiq Sans",
            "showLeaderboardButton": true,
            "leaderboardButtonText": "Leadeboard",
            "showSoundButton": true,
            "soundEnabledIcon": "https://frontend.apps.playcent.com/stack/assets/sound_on.png",
            "soundDisabledIcon": "https://frontend.apps.playcent.com/stack/assets/sound_off.png"
        },
        "settings": {
            "instructions1": "Tap / Spacebar to place blocks",
            "instructions2": "Place new blocks over the old ones",
            "instructions3": "Have fun!",
            "textColor": "#000",
            "theme": "https://frontend.apps.playcent.com/stack/assets/theme.mp3",
            "volume": "0.7",
            "block": "https://frontend.apps.playcent.com/8158faf196634992a79340ba31a1f8f4/assets/9408aff4e62c7232d72658442133d8ac.png",
            "blockSize": 40,
            "blockCount": 5,
            "showPlayer": false,
            "idle": "https://frontend.apps.playcent.com/8158faf196634992a79340ba31a1f8f4/assets/09f692ad5031bc462cef4f63c95162e3-removebg-preview (1).png",
            "jump": "https://frontend.apps.playcent.com/8158faf196634992a79340ba31a1f8f4/assets/09f692ad5031bc462cef4f63c95162e3-removebg-preview (1).png",
            "depth": true,
            "fixedLength": true,
            "gameLength": 15,
            "scoreToWin": 10,
            "showComboText": true,
            "comboTextColor": "#0f1def",
            "comboTexts": {
                "i1": "Nice!",
                "i2": "Keep up!",
                "i3": "Great!",
                "i4": "Perfect!"
            },
            "tap": "https://frontend.apps.playcent.com/stack/assets/tap.mp3",
            "lose": "https://frontend.apps.playcent.com/stack/assets/lose.mp3"
        },
        "postGameScreen": {
            "scoreText": "Your score is: ",
            "playButtonText": "Play Again",
            "buttonColor": "#000000",
            "cardColor": "#ffffff",
            "textColor": "#000000",
            "buttonTextColor": "#ffffff",
            "showLeadeboardButtonPostGameScreen": true,
            "submitScoreText": "Submit score",
            "leaderboardButtonText": "Leaderboard",
            "showText": false,
            "customText": "Hello world",
            "submitName": true,
            "submitEmail": true,
            "showCTA": true,
            "ctaText": "Check out our page for more",
            "ctaButtonText": "Go to primordials",
            "ctaUrl": "http://primordials.io"
        }
    }
}